%YAML 1.1
%TAG !u! tag:unity3d.com,2011:
--- !u!1045 &1
EditorBuildSettings:
  m_ObjectHideFlags: 0
  serializedVersion: 2
  m_Scenes:
  - enabled: 1
    path: Assets/Scenes/MainMenu.unity
    guid: ad779c7909f56b446a0cd0d014b037c4
  - enabled: 1
    path: Assets/Scenes/PlayTest.unity
    guid: a949080f1dc4f254f95c5543982b41ce
  - enabled: 1
    path: Assets/Scenes/PlayAI.unity
    guid: 1c0e19170c599d04f9de9b2d749a16a2
  - enabled: 1
    path: Assets/Scenes/PlayLocal.unity
    guid: bd304bedb190bbd48992a84cdb1bd98a
  m_configObjects: {}
